Additional functionality for MHW outputs in R and Python • MHWdetection
…
Category comparisons

The final bit of extra functionality that must be compared between the two languages is the newest addition for both. This is the calculation of categories for MHWs as seen in Hobday et al. (2018). The two languages go about the calculation of these events in rather different ways. And produce different outputs. This is however intentional and so it must be decided if this is to be made more consistent, or be left as it is.

# Load Python category results
category_py <- read_csv("data/mhws_py.csv") %>% 
  select(date_peak, category, intensity_max, duration, 
         duration_moderate, duration_strong, duration_severe, duration_extreme)
category_py

## # A tibble: 60 x 8
##    date_peak  category intensity_max duration duration_modera…
##    <date>     <chr>            <dbl>    <int>            <int>
##  1 1984-06-05 Moderate          1.98       12               12
##  2 1984-06-19 Moderate          2.13        6                6
##  3 1984-07-10 Moderate          2.24       19               19
##  4 1984-10-06 Moderate          1.29        5                5
##  5 1984-10-23 Moderate          1.83        7                7
##  6 1984-10-30 Moderate          1.50       20               17
##  7 1985-07-17 Moderate          2.21        7                7
##  8 1987-10-04 Moderate          1.12        5                5
##  9 1988-06-11 Moderate          1.69        6                6
## 10 1988-06-28 Moderate          1.99        6                6
## # ... with 50 more rows, and 3 more variables: duration_strong <int>,
## #   duration_severe <int>, duration_extreme <int>

# Calculate categories in R
category_r <- category(default_r, name = "WA")
category_r

## # A tibble: 60 x 11
##    event_no event_name peak_date  category i_max duration p_moderate
##       <int> <fct>      <date>     <chr>    <dbl>    <int>      <dbl>
##  1        1 <NA>       1984-06-05 I Moder…  1.98       12        100
##  2        2 <NA>       1984-06-19 I Moder…  2.13        6        100
##  3        3 <NA>       1984-07-10 I Moder…  2.24       19        100
##  4        4 <NA>       1984-10-06 I Moder…  1.29        5        100
##  5        5 <NA>       1984-10-23 I Moder…  1.83        7        100
##  6        7 <NA>       1985-07-17 I Moder…  2.21        7        100
##  7        8 <NA>       1987-10-04 I Moder…  1.12        5        100
##  8        9 <NA>       1988-06-11 I Moder…  1.69        6        100
##  9       10 <NA>       1988-06-28 I Moder…  1.99        6        100
## 10       11 <NA>       1988-10-25 I Moder…  1.55       11        100
## # ... with 50 more rows, and 4 more variables: p_strong <dbl>,
## #   p_severe <dbl>, p_extreme <dbl>, season <chr>
…
