Assessing the effect of time series duration • MHWdetection
…
Line plot showing the standard deviation (sd) of each day of the year (doy) for the three different sites. The line colours denote the number of samples used for each doy. All re-samples were run 100 times, thus n = 100 for each sd of each doy for each id.

Hmmm…. Interesting how the seasonal and threshold signals of increased summer variance comes through so nicely in the Med data the fewer samples are taken. The other two time series produce somewhat strange signals. We can see that the 30 year, and to a lesser extent 20 year, re-sampled time series are much smoother than the 10 year re-sample. The WA data are either very strange, or very exposed to particularly intense events.

sst_ALL_sd %>% 
  group_by(site, variable, id) %>% 
  summarise(sd_mean = mean(value))

## # A tibble: 27 x 4
## # Groups:   site, variable [?]
##    site   variable  id        sd_mean
##    <chr>  <chr>     <chr>       <dbl>
##  1 Med    seas_sd   sample_10  0.0565
##  2 Med    seas_sd   sample_20  0.0393
##  3 Med    seas_sd   sample_30  0.0328
##  4 Med    thresh_sd sample_10  0.0969
##  5 Med    thresh_sd sample_20  0.0706
##  6 Med    thresh_sd sample_30  0.0593
##  7 Med    var_sd    sample_10  0.0397
##  8 Med    var_sd    sample_20  0.0283
##  9 Med    var_sd    sample_30  0.0235
## 10 NW_Atl seas_sd   sample_10  0.0621
## # ... with 17 more rows
…
